eda_hypotheses.R
…
missing_summary <- tibble(
  column         = names(race_data),
  missing_values = map_int(race_data, ~ sum(is.na(.x))),
  missing_share  = round(missing_values / nrow(race_data), 4)
) %>%
  arrange(desc(missing_values))

cat("Missing values by column\n")

## Missing values by column

print(missing_summary)

## # A tibble: 25 × 3
##    column    missing_values missing_share
##    <chr>              <int>         <dbl>
##  1 Time                   0             0
##  2 Driver                 0             0
##  3 LapTime                0             0
##  4 LapNumber              0             0
##  5 Stint                  0             0
##  6 SpeedI1                0             0
##  7 SpeedI2                0             0
##  8 SpeedFL                0             0
##  9 SpeedST                0             0
## 10 Compound               0             0
## # ℹ 15 more rows
…
